Math,Remedial Math,30,10,emma.osoobe@mailinator.com
Math,Fundamental Math or Basic Math,60,15,emma.osoobe@mailinator.com
Math,Mathematics,90,20,emma.osoobe@mailinator.com
Math,Pre-Algebra,30,10,emma.osoobe@mailinator.com
Math,Introduction to Algebra,60,15,emma.osoobe@mailinator.com
Math,Algebra,90,20,emma.osoobe@mailinator.com
Math,Algebra I,30,10,emma.osoobe@mailinator.com
Math,Algebra II,60,15,emma.osoobe@mailinator.com
Math,Intermediate Algebra,90,20,emma.osoobe@mailinator.com
Science,General Science,30,10,emma.osoobe@mailinator.com
Science,Physics,60,15,emma.osoobe@mailinator.com
Science,Physical Science,90,20,emma.osoobe@mailinator.com
Science,Chemistry,30,10,emma.osoobe@mailinator.com
Science,Organic Chemistry,60,15,emma.osoobe@mailinator.com
Science,Life Science,90,20,emma.osoobe@mailinator.com
Science,Biology,30,10,emma.osoobe@mailinator.com
Science,Zoology,60,15,emma.osoobe@mailinator.com
Science,Marine Biology,90,20,emma.osoobe@mailinator.com
Science,Botany,30,10,emma.osoobe@mailinator.com
Science,Earth Science,60,15,emma.osoobe@mailinator.com
Science,Geology,90,20,emma.osoobe@mailinator.com
English,English I,30,10,emily.osoobe@mailinator.com
English,English II,60,15,emily.osoobe@mailinator.com
English,English III,90,20,emily.osoobe@mailinator.com
English,English IV,90,20,emily.osoobe@mailinator.com
History,Ancient History,30,10,emily.osoobe@mailinator.com
History,Medieval History,60,15,emily.osoobe@mailinator.com
History,Greek and Roman History,90,20,emily.osoobe@mailinator.com
History,Renaissance History with US History,90,10,emily.osoobe@mailinator.com
History,Modern History with US History,30,15,emily.osoobe@mailinator.com
History,World History,60,20,emily.osoobe@mailinator.com
History,World Geography,90,20,emily.osoobe@mailinator.com
History,US History,90,20,emily.osoobe@mailinator.com
Science,Oceanography,30,10,lily.osoobe@mailinator.com
Science,Meteorology,60,15,lily.osoobe@mailinator.com
Science,Astronomy,90,20,lily.osoobe@mailinator.com
Science,Animal Science,30,10,lily.osoobe@mailinator.com
Science,Equine Science,60,15,lily.osoobe@mailinator.com
Science,Veterinary Science,90,20,lily.osoobe@mailinator.com
Science,Forensic Science,30,10,lily.osoobe@mailinator.com
Science,Ecology,60,15,lily.osoobe@mailinator.com
Science,Environmental Science,90,20,lily.osoobe@mailinator.com
Science,Gardening,30,10,lily.osoobe@mailinator.com
Science,Food Science,60,15,lily.osoobe@mailinator.com
Logic,Logic I,30,10,lily.osoobe@mailinator.com
Logic,Logic II,60,15,lily.osoobe@mailinator.com
Logic,Critical Thinking,90,20,lily.osoobe@mailinator.com
Logic,Rhetoric,90,20,lily.osoobe@mailinator.com
History,Ancient History,30,10,sarah.osoobe@mailinator.com
History,Medieval History,60,15,sarah.osoobe@mailinator.com
History,Greek and Roman History,90,20,sarah.osoobe@mailinator.com
History,Renaissance History with US History,30,10,sarah.osoobe@mailinator.com
History,Modern History with US History,60,15,sarah.osoobe@mailinator.com
History,World History,90,20,sarah.osoobe@mailinator.com
History,World Geography,30,10,sarah.osoobe@mailinator.com
History,US History,60,15,sarah.osoobe@mailinator.com
Literature,World Literature,90,20,sarah.osoobe@mailinator.com
Literature,Ancient Literature,30,10,sarah.osoobe@mailinator.com
Literature,Medieval Literature,60,15,sarah.osoobe@mailinator.com
Literature,Renaissance Literature,90,20,sarah.osoobe@mailinator.com
Literature,Modern Literature,30,10,sarah.osoobe@mailinator.com
Literature,British Literature,60,15,sarah.osoobe@mailinator.com
Literature,American Literature,90,20,sarah.osoobe@mailinator.com
Literature,Composition,30,10,sarah.osoobe@mailinator.com
Literature,Creative Writing,60,15,sarah.osoobe@mailinator.com
Literature,Poetry,90,20,sarah.osoobe@mailinator.com
Geography,World Geography,90,20,mia.osoobe@mailinator.com
History,Ancient History,30,10,mia.osoobe@mailinator.com
History,Medieval History,60,15,mia.osoobe@mailinator.com
History,Greek and Roman History,90,20,mia.osoobe@mailinator.com
History,Renaissance History with US History,30,10,mia.osoobe@mailinator.com
History,Modern History with US History,60,15,mia.osoobe@mailinator.com
History,World History,90,20,mia.osoobe@mailinator.com
History,World Geography,30,10,mia.osoobe@mailinator.com
English,English I,30,10,dana.osoobe@mailinator.com
English,English II,60,15,dana.osoobe@mailinator.com
English,English III,90,20,dana.osoobe@mailinator.com
English,English IV,90,20,dana.osoobe@mailinator.com
Spanish,Spanish I,30,10,dana.osoobe@mailinator.com
Spanish,Spanish II,60,15,dana.osoobe@mailinator.com
Spanish,Spanish III,90,20,dana.osoobe@mailinator.com
Spanish,Spanish IV,90,20,dana.osoobe@mailinator.com
Math,Geometry,30,10,sheila.osoobe@mailinator.com
Math,Trigonometry,60,15,sheila.osoobe@mailinator.com
Math,Precalculus,90,20,sheila.osoobe@mailinator.com
Math,Calculus,30,10,sheila.osoobe@mailinator.com
Math,Statistics,60,15,sheila.osoobe@mailinator.com
Math,Business Math,90,20,sheila.osoobe@mailinator.com
Math,Consumer Math,30,10,sheila.osoobe@mailinator.com
Math,Accounting,60,15,sheila.osoobe@mailinator.com
Math,Personal Finance and Investing,90,20,sheila.osoobe@mailinator.com
Science,General Science,60,15,sheila.osoobe@mailinator.com
Science,Physics,90,20,sheila.osoobe@mailinator.com
Science,Physical Science,90,20,sheila.osoobe@mailinator.com
Science,Chemistry,30,10,sheila.osoobe@mailinator.com
Science,Organic Chemistry,60,15,sheila.osoobe@mailinator.com
Science,Life Science,90,20,sheila.osoobe@mailinator.com
Science,Biology,30,10,sheila.osoobe@mailinator.com
Science,Zoology,60,15,sheila.osoobe@mailinator.com
Science,Marine Biology,90,20,sheila.osoobe@mailinator.com
Science,Botany,30,10,sheila.osoobe@mailinator.com
Science,Earth Science,60,15,sheila.osoobe@mailinator.com
Science,Geology,90,20,sheila.osoobe@mailinator.com
English,English I,30,10,angel.osoobe@mailinator.com
English,English II,60,15,angel.osoobe@mailinator.com
English,English III,90,20,angel.osoobe@mailinator.com
English,English IV,90,20,angel.osoobe@mailinator.com
History,Ancient History,60,15,angel.osoobe@mailinator.com
History,Medieval History,90,20,angel.osoobe@mailinator.com
History,Greek and Roman History,90,20,angel.osoobe@mailinator.com
History,Renaissance History with US History,30,10,angel.osoobe@mailinator.com
History,Modern History with US History,60,15,angel.osoobe@mailinator.com
History,World History,90,20,angel.osoobe@mailinator.com
History,World Geography,30,10,angel.osoobe@mailinator.com
History,US History,90,20,angel.osoobe@mailinator.com
Science,Oceanography,60,15,ashley.osoobe@mailinator.com
Science,Meteorology,90,20,ashley.osoobe@mailinator.com
Science,Astronomy,30,10,ashley.osoobe@mailinator.com
Science,Animal Science,60,15,ashley.osoobe@mailinator.com
Science,Equine Science,90,20,ashley.osoobe@mailinator.com
Science,Veterinary Science,90,20,ashley.osoobe@mailinator.com
Science,Forensic Science,60,15,ashley.osoobe@mailinator.com
Science,Ecology,90,20,ashley.osoobe@mailinator.com
Science,Environmental Science,90,20,ashley.osoobe@mailinator.com
Science,Gardening,60,15,ashley.osoobe@mailinator.com
Science,Food Science,90,20,ashley.osoobe@mailinator.com
Math,Remedial Math,30,10,ashley.osoobe@mailinator.com
Math,Fundamental Math or Basic Math,60,15,ashley.osoobe@mailinator.com
Math,Mathematics,90,20,ashley.osoobe@mailinator.com
Math,Pre-Algebra,90,20,ashley.osoobe@mailinator.com
Math,Introduction to Algebra,60,15,ashley.osoobe@mailinator.com
Math,Algebra,90,20,ashley.osoobe@mailinator.com
Math,Algebra I,90,20,ashley.osoobe@mailinator.com
Math,Algebra II,60,15,ashley.osoobe@mailinator.com
Math,Intermediate Algebra,90,20,ashley.osoobe@mailinator.com
Math,Geometry,60,15,ashley.osoobe@mailinator.com
Literature,Grammar,60,15,cara.osoobe@mailinator.com
Literature,Vocabulary,90,20,cara.osoobe@mailinator.com
Literature,Debate,90,20,cara.osoobe@mailinator.com
Literature,Speech,60,15,cara.osoobe@mailinator.com
Literature,Journalism,90,20,cara.osoobe@mailinator.com
Literature,Publishing Skills,30,10,cara.osoobe@mailinator.com
Literature,Photojournalism,60,15,cara.osoobe@mailinator.com
Literature,Yearbook,90,20,cara.osoobe@mailinator.com
Literature,Study Skills,90,20,cara.osoobe@mailinator.com
Literature,Research Skills,60,15,cara.osoobe@mailinator.com
History,Ancient History,90,20,cara.osoobe@mailinator.com
History,Medieval History,90,20,cara.osoobe@mailinator.com
History,Greek and Roman History,60,15,cara.osoobe@mailinator.com
History,Renaissance History with US History,90,20,cara.osoobe@mailinator.com
History,Modern History with US History,60,15,cara.osoobe@mailinator.com
History,World History,30,10,cara.osoobe@mailinator.com
History,World Geography,60,15,cara.osoobe@mailinator.com
History,US History,90,20,cara.osoobe@mailinator.com
Computer Science,Keyboarding,30,10,benjamin.osoobe@mailinator.com
Computer Science,Word Processing,60,15,benjamin.osoobe@mailinator.com
Computer Science,Computer Aided Drafting,90,20,benjamin.osoobe@mailinator.com
Computer Science,Computer Graphics,90,20,benjamin.osoobe@mailinator.com
Computer Science,Digital Arts,60,15,benjamin.osoobe@mailinator.com
Computer Science,Photoshop,90,20,benjamin.osoobe@mailinator.com
Computer Science,Programming,90,20,benjamin.osoobe@mailinator.com
Computer Science,Computer Repair,60,15,benjamin.osoobe@mailinator.com
Computer Science,Web Design,90,20,benjamin.osoobe@mailinator.com
Computer Science,Desktop Publishing,60,15,benjamin.osoobe@mailinator.com
Logic,Logic I,30,10,benjamin.osoobe@mailinator.com
Logic,Logic II,60,15,benjamin.osoobe@mailinator.com
Logic,Critical Thinking,90,20,benjamin.osoobe@mailinator.com
Logic,Rhetoric,30,10,benjamin.osoobe@mailinator.com
English,English I,30,10,oliver.osoobe@mailinator.com
English,English II,60,15,oliver.osoobe@mailinator.com
English,English III,90,20,oliver.osoobe@mailinator.com
English,English IV,90,20,oliver.osoobe@mailinator.com
French,French I,30,10,oliver.osoobe@mailinator.com
French,French II,60,15,oliver.osoobe@mailinator.com
French,French III,90,20,oliver.osoobe@mailinator.com
French,French IV,90,20,oliver.osoobe@mailinator.com
Math,Remedial Math,30,10,lucas.osoobe@mailinator.com
Math,Fundamental Math or Basic Math,30,10,lucas.osoobe@mailinator.com
Math,Mathematics,60,15,lucas.osoobe@mailinator.com
Math,Pre-Algebra,90,20,lucas.osoobe@mailinator.com
Math,Introduction to Algebra,90,20,lucas.osoobe@mailinator.com
Math,Algebra,30,10,lucas.osoobe@mailinator.com
Math,Algebra I,60,15,lucas.osoobe@mailinator.com
Math,Algebra II,90,20,lucas.osoobe@mailinator.com
Math,Intermediate Algebra,90,20,lucas.osoobe@mailinator.com
Math,Geometry,90,20,lucas.osoobe@mailinator.com
Logic,Logic I,30,10,lucas.osoobe@mailinator.com
Logic,Logic II,60,15,lucas.osoobe@mailinator.com
Logic,Critical Thinking,90,20,lucas.osoobe@mailinator.com
Logic,Rhetoric,90,20,lucas.osoobe@mailinator.com
English,English I,30,10,noah.osoobe@mailinator.com
English,English II,60,15,noah.osoobe@mailinator.com
English,English III,90,20,noah.osoobe@mailinator.com
English,English IV,90,20,noah.osoobe@mailinator.com
History,Ancient History,60,15,noah.osoobe@mailinator.com
History,Medieval History,90,20,noah.osoobe@mailinator.com
History,Greek and Roman History,30,10,noah.osoobe@mailinator.com
History,Renaissance History with US History,60,15,noah.osoobe@mailinator.com
History,Modern History with US History,90,20,noah.osoobe@mailinator.com
History,World History,30,10,noah.osoobe@mailinator.com
History,World Geography,60,15,noah.osoobe@mailinator.com
History,US History,90,20,noah.osoobe@mailinator.com
Science,General Science,60,15,patrick.osoobe@mailinator.com
Science,Physics,90,20,patrick.osoobe@mailinator.com
Science,Physical Science,30,10,patrick.osoobe@mailinator.com
Science,Chemistry,60,15,patrick.osoobe@mailinator.com
Science,Organic Chemistry,90,20,patrick.osoobe@mailinator.com
Science,Life Science,30,10,patrick.osoobe@mailinator.com
Science,Biology,60,15,patrick.osoobe@mailinator.com
Science,Zoology,90,20,patrick.osoobe@mailinator.com
Science,Marine Biology,30,10,patrick.osoobe@mailinator.com
Science,Botany,60,15,patrick.osoobe@mailinator.com
Science,Earth Science,90,20,patrick.osoobe@mailinator.com
Math,Remedial Math,90,20,patrick.osoobe@mailinator.com
Math,Fundamental Math or Basic Math,30,10,patrick.osoobe@mailinator.com
Math,Mathematics,60,15,patrick.osoobe@mailinator.com
Math,Pre-Algebra,90,20,patrick.osoobe@mailinator.com
Math,Introduction to Algebra,30,10,patrick.osoobe@mailinator.com
Math,Algebra,60,15,patrick.osoobe@mailinator.com
Math,Algebra I,90,20,patrick.osoobe@mailinator.com
Math,Algebra II,30,10,patrick.osoobe@mailinator.com
Math,Intermediate Algebra,60,15,patrick.osoobe@mailinator.com
Math,Geometry,90,20,patrick.osoobe@mailinator.com
Literature,World Literature,30,10,warren.osoobe@mailinator.com
Literature,Ancient Literature,60,15,warren.osoobe@mailinator.com
Literature,Medieval Literature,90,20,warren.osoobe@mailinator.com
Literature,Renaissance Literature,90,20,warren.osoobe@mailinator.com
Literature,Modern Literature,30,10,warren.osoobe@mailinator.com
Literature,British Literature,60,15,warren.osoobe@mailinator.com
Literature,American Literature,90,20,warren.osoobe@mailinator.com
Literature,Composition,30,10,warren.osoobe@mailinator.com
Literature,Creative Writing,60,15,warren.osoobe@mailinator.com
Literature,Poetry,90,20,warren.osoobe@mailinator.com
History,Ancient History,30,10,warren.osoobe@mailinator.com
History,Medieval History,60,15,warren.osoobe@mailinator.com
History,Greek and Roman History,90,20,warren.osoobe@mailinator.com
History,Renaissance History with US History,30,10,warren.osoobe@mailinator.com
History,Modern History with US History,60,15,warren.osoobe@mailinator.com
History,World History,90,20,warren.osoobe@mailinator.com
History,World Geography,30,10,warren.osoobe@mailinator.com
History,US History,60,15,warren.osoobe@mailinator.com
Computer Science,Keyboarding,30,10,philip.osoobe@mailinator.com
Computer Science,Word Processing,60,15,philip.osoobe@mailinator.com
Computer Science,Computer Aided Drafting,90,20,philip.osoobe@mailinator.com
Computer Science,Computer Graphics,30,10,philip.osoobe@mailinator.com
Computer Science,Digital Arts,60,15,philip.osoobe@mailinator.com
Computer Science,Photoshop,90,20,philip.osoobe@mailinator.com
Computer Science,Programming,30,10,philip.osoobe@mailinator.com
Computer Science,Computer Repair,60,15,philip.osoobe@mailinator.com
Computer Science,Web Design,90,20,philip.osoobe@mailinator.com
Computer Science,Desktop Publishing,30,10,philip.osoobe@mailinator.com
Logic,Logic I,60,15,philip.osoobe@mailinator.com
Logic,Logic II,60,15,philip.osoobe@mailinator.com
Logic,Critical Thinking,90,20,philip.osoobe@mailinator.com
Logic,Rhetoric,30,10,philip.osoobe@mailinator.com
English,English I,30,10,peter.osoobe@mailinator.com
English,English II,60,15,peter.osoobe@mailinator.com
English,English III,90,20,peter.osoobe@mailinator.com
English,English IV,30,10,peter.osoobe@mailinator.com
Spanish,Spanish I,60,15,peter.osoobe@mailinator.com
Spanish,Spanish II,60,15,peter.osoobe@mailinator.com
Spanish,Spanish III,90,20,peter.osoobe@mailinator.com
Spanish,Spanish IV,30,10,peter.osoobe@mailinator.com
Logic,Logic I,90,20,albert.osoobe@mailinator.com
Logic,Logic II,30,10,albert.osoobe@mailinator.com
Logic,Critical Thinking,60,15,albert.osoobe@mailinator.com
Logic,Rhetoric,60,15,albert.osoobe@mailinator.com
Science,Botany,90,20,albert.osoobe@mailinator.com
Science,Earth Science,30,10,albert.osoobe@mailinator.com
Science,Geology,30,10,albert.osoobe@mailinator.com
Science,Oceanography,60,15,albert.osoobe@mailinator.com
Science,Meteorology,90,20,albert.osoobe@mailinator.com
Science,Astronomy,30,10,albert.osoobe@mailinator.com
Science,Animal Science,60,15,albert.osoobe@mailinator.com
Science,Equine Science,60,15,albert.osoobe@mailinator.com
Science,Veterinary Science,90,20,albert.osoobe@mailinator.com
Science,Forensic Science,30,10,albert.osoobe@mailinator.com
Science,Ecology,90,20,albert.osoobe@mailinator.com
Science,Environmental Science,30,10,albert.osoobe@mailinator.com
Science,Gardening,60,15,albert.osoobe@mailinator.com
Science,Food Science,60,15,albert.osoobe@mailinator.com
Computer Science,Keyboarding,60,15,james.osoobe@mailinator.com
Computer Science,Word Processing,90,20,james.osoobe@mailinator.com
Computer Science,Computer Aided Drafting,30,10,james.osoobe@mailinator.com
Computer Science,Computer Graphics,60,15,james.osoobe@mailinator.com
Computer Science,Digital Arts,60,15,james.osoobe@mailinator.com
Computer Science,Photoshop,90,20,james.osoobe@mailinator.com
Computer Science,Programming,30,10,james.osoobe@mailinator.com
Computer Science,Computer Repair,90,20,james.osoobe@mailinator.com
Computer Science,Web Design,30,10,james.osoobe@mailinator.com
Computer Science,Desktop Publishing,60,15,james.osoobe@mailinator.com
Math,Intermediate Algebra,60,15,james.osoobe@mailinator.com
Math,Geometry,60,15,james.osoobe@mailinator.com
Math,Trigonometry,60,15,james.osoobe@mailinator.com
Math,Precalculus,90,20,james.osoobe@mailinator.com
Math,Calculus,30,10,james.osoobe@mailinator.com
Math,Statistics,90,20,james.osoobe@mailinator.com
Math,Business Math,30,10,james.osoobe@mailinator.com
Math,Consumer Math,60,15,james.osoobe@mailinator.com
Math,Accounting,60,15,james.osoobe@mailinator.com
Math,Personal Finance and Investing,90,20,james.osoobe@mailinator.com
